{
   "name":"bd_test3_203_2362",
   "components":{
      "pj1aslkdjaslkdj":{
         "branch":"master",
         "description":"build from master with stroke predictor init code."
      }
   },
   "pipelines": {
       "bdpl2": {
         "branch":"master",
         "description": "build from master with stroke predictor evaluation init code."
      }
   }
}
